%!PS-Adobe-3.0 EPSF-3.0
%%Creator: cairo 1.15.10 (http://cairographics.org)
%%CreationDate: Thu Apr 26 14:33:56 2018
%%Pages: 1
%%DocumentData: Clean7Bit
%%LanguageLevel: 2
%%BoundingBox: 0 0 421 643
%%EndComments
%%BeginProlog
50 dict begin
/q { gsave } bind def
/Q { grestore } bind def
/cm { 6 array astore concat } bind def
/w { setlinewidth } bind def
/J { setlinecap } bind def
/j { setlinejoin } bind def
/M { setmiterlimit } bind def
/d { setdash } bind def
/m { moveto } bind def
/l { lineto } bind def
/c { curveto } bind def
/h { closepath } bind def
/re { exch dup neg 3 1 roll 5 3 roll moveto 0 rlineto
      0 exch rlineto 0 rlineto closepath } bind def
/S { stroke } bind def
/f { fill } bind def
/f* { eofill } bind def
/n { newpath } bind def
/W { clip } bind def
/W* { eoclip } bind def
/BT { } bind def
/ET { } bind def
/BDC { mark 3 1 roll /BDC pdfmark } bind def
/EMC { mark /EMC pdfmark } bind def
/cairo_store_point { /cairo_point_y exch def /cairo_point_x exch def } def
/Tj { show currentpoint cairo_store_point } bind def
/TJ {
  {
    dup
    type /stringtype eq
    { show } { -0.001 mul 0 cairo_font_matrix dtransform rmoveto } ifelse
  } forall
  currentpoint cairo_store_point
} bind def
/cairo_selectfont { cairo_font_matrix aload pop pop pop 0 0 6 array astore
    cairo_font exch selectfont cairo_point_x cairo_point_y moveto } bind def
/Tf { pop /cairo_font exch def /cairo_font_matrix where
      { pop cairo_selectfont } if } bind def
/Td { matrix translate cairo_font_matrix matrix concatmatrix dup
      /cairo_font_matrix exch def dup 4 get exch 5 get cairo_store_point
      /cairo_font where { pop cairo_selectfont } if } bind def
/Tm { 2 copy 8 2 roll 6 array astore /cairo_font_matrix exch def
      cairo_store_point /cairo_font where { pop cairo_selectfont } if } bind def
/g { setgray } bind def
/rg { setrgbcolor } bind def
/d1 { setcachedevice } bind def
/cairo_data_source {
  CairoDataIndex CairoData length lt
    { CairoData CairoDataIndex get /CairoDataIndex CairoDataIndex 1 add def }
    { () } ifelse
} def
/cairo_flush_ascii85_file { cairo_ascii85_file status { cairo_ascii85_file flushfile } if } def
/cairo_image { image cairo_flush_ascii85_file } def
/cairo_imagemask { imagemask cairo_flush_ascii85_file } def
%%EndProlog
%%BeginSetup
%%EndSetup
%%Page: 1 1
%%BeginPageSetup
%%PageBoundingBox: 0 0 421 643
%%EndPageSetup
q 0 0 421 643 rectclip
1 0 0 -1 0 643 cm q
0 g
12 w
0 J
0 j
[] 0.0 d
4 M q 1 0 0 1 0 0 cm
246.105 639.32 m 246.105 639.32 295.344 545.668 291.105 433.605 c 286.867
 321.547 216.105 215.035 216.105 215.035 c S Q
0.964706 0.372549 0.0588235 rg
104.895 176.465 m 162.293 176.855 208.723 191.566 208.602 209.316 c 208.48
 227.07 161.855 241.141 104.457 240.75 c 47.059 240.355 0.629 225.648 0.75
 207.898 c 0.871 190.145 47.5 176.074 104.895 176.465 c h
104.895 176.465 m f
0.0470588 0 1 rg
1.499965 w
q 0.00682897 -1 1 0.00682897 0 0 cm
-175.74 106.095 m -175.739 163.493 -190.132 210.021 -207.882 210.021 c 
-225.636 210.021 -240.024 163.495 -240.025 106.096 c -240.023 48.698 -225.634
 2.17 -207.884 2.17 c -190.13 2.169 -175.742 48.7 -175.74 106.095 c h
-175.74 106.095 m S Q
0.964706 0.372549 0.0588235 rg
104.551 230.785 m 152.961 199.945 199.934 187.082 209.473 202.055 c 219.012
 217.027 187.5 254.164 139.09 285.004 c 90.68 315.84 43.703 328.703 34.164
 313.73 c 24.629 298.762 56.141 261.621 104.551 230.785 c h
104.551 230.785 m f
0.0470588 0 1 rg
1.265103 w
q -0.637043 -1 1 -0.637043 0 0 cm
-211.54 -30.209 m -211.54 18.201 -223.676 57.443 -238.649 57.443 c -253.622
 57.444 -265.759 18.2 -265.759 -30.21 c -265.756 -78.619 -253.619 -117.863
 -238.646 -117.864 c -223.678 -117.863 -211.538 -78.618 -211.54 -30.209 
c h
-211.54 -30.209 m S Q
0.964706 0.372549 0.0588235 rg
193.523 321.355 m 168.203 372.871 134.766 408.281 118.832 400.449 c 102.902
 392.621 110.512 344.512 135.828 293 c 161.148 241.488 194.59 206.078 210.52
 213.906 c 226.453 221.738 218.84 269.844 193.523 321.355 c h
193.523 321.355 m f
0.0470588 0 1 rg
1.346183 w
q 1 0.491506 -0.491506 1 0 0 cm
283.085 182.218 m 283.084 233.733 270.171 275.491 254.237 275.49 c 238.308
 275.491 225.392 233.73 225.39 182.219 c 225.392 130.707 238.308 88.948 
254.238 88.947 c 270.171 88.947 283.083 130.707 283.085 182.218 c h
283.085 182.218 m S Q
0.964706 0.372549 0.0588235 rg
250.391 317.895 m 250.391 375.293 236 421.82 218.246 421.82 c 200.496 421.82
 186.105 375.293 186.105 317.895 c 186.105 260.496 200.496 213.965 218.246
 213.965 c 236 213.965 250.391 260.496 250.391 317.895 c h
250.391 317.895 m f
0.0470588 0 1 rg
1.5 w
q 1 0 0 1 0 0 cm
250.391 317.895 m 250.391 375.293 236 421.82 218.246 421.82 c 200.496 421.82
 186.105 375.293 186.105 317.895 c 186.105 260.496 200.496 213.965 218.246
 213.965 c 236 213.965 250.391 260.496 250.391 317.895 c h
250.391 317.895 m S Q
0.964706 0.372549 0.0588235 rg
314.148 259.793 m 355.949 299.129 379.973 341.496 367.809 354.422 c 355.641
 367.352 311.895 345.941 270.094 306.609 c 228.293 267.273 204.27 224.902
 216.434 211.977 c 228.602 199.047 272.348 220.457 314.148 259.793 c h
314.148 259.793 m f
0.0470588 0 1 rg
1.092377 w
q 0.941035 -1 1 0.941035 0 0 cm
19.003 296.266 m 19.003 338.066 8.524 371.952 -4.402 371.951 c -17.332 
371.951 -27.81 338.065 -27.812 296.266 c -27.812 254.465 -17.33 220.578 
-4.404 220.578 c 8.526 220.579 19.003 254.465 19.003 296.266 c h
19.003 296.266 m S Q
0.964706 0.372549 0.0588235 rg
320.469 193.816 m 377.496 200.332 422.09 219.914 420.074 237.551 c 418.059
 255.188 370.195 264.203 313.168 257.684 c 256.141 251.168 211.547 231.586
 213.562 213.949 c 215.578 196.312 263.441 187.297 320.469 193.816 c h
320.469 193.816 m f
0.0470588 0 1 rg
1.490298 w
q 0.114291 -1 1 0.114291 0 0 cm
-155.163 338.202 m -155.161 395.23 -169.46 441.457 -187.096 441.458 c -204.733
 441.458 -219.032 395.229 -219.03 338.201 c -219.032 281.174 -204.734 234.946
 -187.097 234.946 c -169.46 234.946 -155.161 281.175 -155.163 338.202 c 
h
-155.163 338.202 m S Q
0.964706 0.372549 0.0588235 rg
319.625 207.816 m 263.645 220.48 215.086 216.711 211.168 199.398 c 207.25
 182.086 249.457 157.781 305.441 145.113 c 361.422 132.449 409.984 136.215
 413.898 153.531 c 417.816 170.844 375.609 195.148 319.625 207.816 c h
319.625 207.816 m f
0.0470588 0 1 rg
1.463022 w
q 0.226249 1 -1 0.226249 0 0 cm
266.49 -259.332 m 266.489 -203.352 252.451 -157.969 235.139 -157.968 c 
217.826 -157.967 203.789 -203.35 203.788 -259.335 c 203.789 -315.315 217.823
 -360.702 235.139 -360.698 c 252.452 -360.699 266.489 -315.316 266.49 -259.332
 c h
266.49 -259.332 m S Q
0.964706 0.372549 0.0588235 rg
297.668 146.285 m 263.551 192.441 224.32 221.309 210.047 210.758 c 195.77
 200.203 211.855 154.23 245.969 108.074 c 280.086 61.914 319.316 33.051 
333.594 43.602 c 347.867 54.152 331.785 100.125 297.668 146.285 c h
297.668 146.285 m f
0.0470588 0 1 rg
1.206272 w
q 1 0.739118 -0.739118 1 0 0 cm
262.427 -47.679 m 262.426 -1.522 250.853 35.898 236.579 35.898 c 222.301
 35.896 210.729 -1.523 210.728 -47.679 c 210.728 -93.839 222.302 -131.257
 236.579 -131.258 c 250.853 -131.257 262.427 -93.839 262.427 -47.679 c h
262.427 -47.679 m S Q
0.964706 0.372549 0.0588235 rg
248.246 104.68 m 248.246 162.078 233.855 208.605 216.105 208.605 c 198.352
 208.605 183.961 162.078 183.961 104.68 c 183.961 47.281 198.352 0.75 216.105
 0.75 c 233.855 0.75 248.246 47.281 248.246 104.68 c h
248.246 104.68 m f
0.0470588 0 1 rg
1.5 w
q 1 0 0 1 0 0 cm
248.246 104.68 m 248.246 162.078 233.855 208.605 216.105 208.605 c 198.352
 208.605 183.961 162.078 183.961 104.68 c 183.961 47.281 198.352 0.75 216.105
 0.75 c 233.855 0.75 248.246 47.281 248.246 104.68 c h
248.246 104.68 m S Q
0.964706 0.372549 0.0588235 rg
153.168 111.105 m 197.176 147.953 223.613 188.859 212.219 202.469 c 200.824
 216.078 155.906 197.242 111.898 160.395 c 67.891 123.547 41.453 82.641 
52.848 69.031 c 64.246 55.422 109.16 74.258 153.168 111.105 c h
153.168 111.105 m f
0.0470588 0 1 rg
1.150098 w
q 0.837277 -1 1 0.837277 0 0 cm
10.075 144.732 m 10.075 188.74 -0.96 224.417 -14.569 224.417 c -28.179 
224.418 -39.215 188.74 -39.214 144.732 c -39.214 100.723 -28.179 65.047 
-14.569 65.046 c -0.958 65.048 10.076 100.724 10.075 144.732 c h
10.075 144.732 m S Q
0.807843 0.847059 0.176471 rg
269.676 215.352 m 269.676 245.109 247.609 269.234 220.391 269.234 c 193.172
 269.234 171.105 245.109 171.105 215.352 c 171.105 185.59 193.172 161.465
 220.391 161.465 c 247.609 161.465 269.676 185.59 269.676 215.352 c h
269.676 215.352 m f
0.0470588 0 1 rg
2.038913 w
q 0.735686 0 0 1 0 0 cm
366.564 215.352 m 366.564 245.109 336.569 269.234 299.572 269.234 c 262.574
 269.234 232.579 245.109 232.579 215.352 c 232.579 185.59 262.574 161.465
 299.572 161.465 c 336.569 161.465 366.564 185.59 366.564 215.352 c h
366.564 215.352 m S Q
Q Q
showpage
%%Trailer
end
%%EOF
