%!PS-Adobe-3.0 EPSF-3.0
%%Creator: cairo 1.15.10 (http://cairographics.org)
%%CreationDate: Thu Apr 26 14:33:55 2018
%%Pages: 1
%%DocumentData: Clean7Bit
%%LanguageLevel: 2
%%BoundingBox: 0 0 342 557
%%EndComments
%%BeginProlog
50 dict begin
/q { gsave } bind def
/Q { grestore } bind def
/cm { 6 array astore concat } bind def
/w { setlinewidth } bind def
/J { setlinecap } bind def
/j { setlinejoin } bind def
/M { setmiterlimit } bind def
/d { setdash } bind def
/m { moveto } bind def
/l { lineto } bind def
/c { curveto } bind def
/h { closepath } bind def
/re { exch dup neg 3 1 roll 5 3 roll moveto 0 rlineto
      0 exch rlineto 0 rlineto closepath } bind def
/S { stroke } bind def
/f { fill } bind def
/f* { eofill } bind def
/n { newpath } bind def
/W { clip } bind def
/W* { eoclip } bind def
/BT { } bind def
/ET { } bind def
/BDC { mark 3 1 roll /BDC pdfmark } bind def
/EMC { mark /EMC pdfmark } bind def
/cairo_store_point { /cairo_point_y exch def /cairo_point_x exch def } def
/Tj { show currentpoint cairo_store_point } bind def
/TJ {
  {
    dup
    type /stringtype eq
    { show } { -0.001 mul 0 cairo_font_matrix dtransform rmoveto } ifelse
  } forall
  currentpoint cairo_store_point
} bind def
/cairo_selectfont { cairo_font_matrix aload pop pop pop 0 0 6 array astore
    cairo_font exch selectfont cairo_point_x cairo_point_y moveto } bind def
/Tf { pop /cairo_font exch def /cairo_font_matrix where
      { pop cairo_selectfont } if } bind def
/Td { matrix translate cairo_font_matrix matrix concatmatrix dup
      /cairo_font_matrix exch def dup 4 get exch 5 get cairo_store_point
      /cairo_font where { pop cairo_selectfont } if } bind def
/Tm { 2 copy 8 2 roll 6 array astore /cairo_font_matrix exch def
      cairo_store_point /cairo_font where { pop cairo_selectfont } if } bind def
/g { setgray } bind def
/rg { setrgbcolor } bind def
/d1 { setcachedevice } bind def
/cairo_data_source {
  CairoDataIndex CairoData length lt
    { CairoData CairoDataIndex get /CairoDataIndex CairoDataIndex 1 add def }
    { () } ifelse
} def
/cairo_flush_ascii85_file { cairo_ascii85_file status { cairo_ascii85_file flushfile } if } def
/cairo_image { image cairo_flush_ascii85_file } def
/cairo_imagemask { imagemask cairo_flush_ascii85_file } def
%%EndProlog
%%BeginSetup
%%EndSetup
%%Page: 1 1
%%BeginPageSetup
%%PageBoundingBox: 0 0 342 557
%%EndPageSetup
q 0 0 342 557 rectclip
1 0 0 -1 0 557 cm q
0.403922 0.658824 1 rg
32.773 131.707 m 259.914 555.992 l 341.344 506.707 l 101.344 82.422 l 88.488
 114.562 l 62.773 133.848 l h
32.773 131.707 m f
0 g
0.75 w
0 J
0 j
[] 0.0 d
4 M q 1 0 0 1 0 0 cm
32.773 131.707 m 259.914 555.992 l 341.344 506.707 l 101.344 82.422 l 88.488
 114.562 l 62.773 133.848 l h
32.773 131.707 m S Q
3 w
q 1 0 0 1 0 0 cm
62.773 133.848 m 283.266 541.859 l S Q
q 1 0 0 1 0 0 cm
88.488 114.562 m 312.27 524.305 l S Q
0.75 w
q 1 0 0 1 0 0 cm
32.773 131.707 m 0.629 0.992 l 101.344 82.422 l S Q
0.629 0.992 m 15.273 60.543 l 15.273 60.543 29.84 59.027 35.453 55.098 
c 42.891 49.891 47.535 38.914 47.535 38.914 c h
0.629 0.992 m f
q 1 0 0 1 0 0 cm
0.629 0.992 m 15.273 60.543 l 15.273 60.543 29.84 59.027 35.453 55.098 
c 42.891 49.891 47.535 38.914 47.535 38.914 c h
0.629 0.992 m S Q
Q Q
showpage
%%Trailer
end
%%EOF
